<div class="col-lg-4 col-6 item">
    <div class="slick-in"> <img src="/img/office/20for30m2/1/1.jpg" href="/img/office/20for30m2/1/1.jpg" alt=""><img src="/img/office/20for30m2/1/2.jpg"  href="/img/office/20for30m2/1/2.jpg" alt=""> </div>
    <p>10 этаж
        <br>
        <br>29,1 м2
        <br>+ коммунальные включены
        <br>+ ежедневная уборка
        <br>+ бесплатная парковка
        <br>+ охрана</p>
</div>
<div class="col-lg-4 col-6 item">
    <div class="slick-in"> <img src="/img/office/20for30m2/2/1.jpg"  href="/img/office/20for30m2/2/1.jpg" alt=""> <img src="/img/office/20for30m2/2/2.jpg"  href="/img/office/20for30m2/2/2.jpg" alt=""> <img src="/img/office/20for30m2/2/3.jpg"  href="/img/office/20for30m2/2/3.jpg" alt=""> </div>
    <p>8 этаж
        <br>
        <br>27,9 м2
        <br>+ коммунальные включены
        <br>+ ежедневная уборка
        <br>+ бесплатная парковка
        <br>+ охрана</p>
</div>